…
## Examples

Deaths by homicide in Mexico

``` r
injury.intent %>%
  filter(intent == "Homicide") %>%
  group_by(year_reg, intent) %>%
  summarise(count = n())
```

    ## `summarise()` has grouped output by 'year_reg'. You can override using the
    ## `.groups` argument.

    ## # A tibble: 21 × 3
    ## # Groups:   year_reg [21]
    ##    year_reg intent   count
    ##       <int> <fct>    <int>
    ##  1     2004 Homicide  9330
    ##  2     2005 Homicide  9926
    ##  3     2006 Homicide 10454
    ##  4     2007 Homicide  8868
    ##  5     2008 Homicide 14007
    ##  6     2009 Homicide 19804
    ##  7     2010 Homicide 25757
    ##  8     2011 Homicide 27213
    ##  9     2012 Homicide 25967
    ## 10     2013 Homicide 23063
    ## # ℹ 11 more rows
…
Total Imputed Homicides in Mexico:

``` r
## make sure to only count deaths that occurred inside Mexico (codes 33 to 35 are USA, LATAM and Other)
injury.intent %>%
  filter(intent.imputed == "Homicide" & !state_occur_death %in% 33:35) %>%
  group_by(year_reg) %>%
  summarise(count = n())
```

    ## # A tibble: 21 × 2
    ##    year_reg count
    ##       <int> <int>
    ##  1     2004 10474
    ##  2     2005 11015
    ##  3     2006 11452
    ##  4     2007 10229
    ##  5     2008 15211
    ##  6     2009 21145
    ##  7     2010 27527
    ##  8     2011 30134
    ##  9     2012 27954
    ## 10     2013 24849
    ## # ℹ 11 more rows
…
